{
    "customerResponses": [
        {
            "id": "07b2c2f4-c4be-48be-cfb8-08db6dcf35f1",
            "email": "araheem@..com",
            "userName": "araheem",
            "name": "Abdul Raheem",
            "role": ". Admin",
            "isEnabled": true,
            "externalUserId": ""
        },
        {
            "id": "c45ca084-488a-412a-eb24-08db715fad4d",
            "email": "aakhtar@..com",
            "userName": "aakhtar",
            "name": "Adeel Akhtera",
            "role": "Airline Admin",
            "isEnabled": false,
            "externalUserId": ""
        },
        {
            "id": "a3ad4a75-e4c6-49ad-06cb-08db983f9b1b",
            "email": "sdafsadf@sdfd.dfd",
            "userName": "dfas",
            "name": "adsfasdf xcvcf",
            "role": "RevMan User",
            "isEnabled": true,
            "externalUserId": ""
        },
        {
            "id": "393db46d-5728-4f4e-6f45-08db6b1d09c7",
            "email": "araza..123@gmail.com",
            "userName": "AA0000",
            "name": "Ali Raza",
            "role": "Airline Admin",
            "isEnabled": true,
            "externalUserId": "008afb19-81f6-460a-9f70-40413025cb7e"
        },
        {
            "id": "a05bdd30-4f0b-4a6a-6f46-08db6b1d09c7",
            "email": "ARAZA@..COM",
            "userName": "US00000",
            "name": "Ali Raza",
            "role": "RevMan User",
            "isEnabled": true,
            "externalUserId": "9031a6be-78bc-4aeb-9766-a5cc58affc7b"
        },
        {
            "id": "7c379ff3-abbc-4f9c-6f4a-08db6b1d09c7",
            "email": "araza..321@gmail.com",
            "userName": "RM0000",
            "name": "Ali Raaza",
            "role": "RevMan User",
            "isEnabled": false,
            "externalUserId": "4e5deafe-6321-439f-a507-79c234295a3a"
        },
        {
            "id": "32880f0f-d39c-4511-f17f-08db9403aa3f",
            "email": "araza@callrom.com",
            "userName": "QA0011",
            "name": "Ali Raza",
            "role": "RevMan User",
            "isEnabled": false,
            "externalUserId": ""
        },
        {
            "id": "efcc9f8d-5729-479b-06ca-08db983f9b1b",
            "email": "araza.ghaffar786@gmail.com",
            "userName": "QA12345",
            "name": "Ali Raza",
            "role": "Airline Admin",
            "isEnabled": false,
            "externalUserId": ""
        },
        {
            "id": "13d73c8f-71fe-4c18-eb2b-08db715fad4d",
            "email": "cmcginnes@..com",
            "userName": "cmcginnes@..com",
            "name": "Charles Mcginnes",
            "role": ". Admin",
            "isEnabled": false,
            "externalUserId": ""
        },
        {
            "id": "8dc16d4e-9c1e-4fa7-c8d0-08db9db67a58",
            "email": "araza..786@gmail.com",
            "userName": "QW12345",
            "name": "Ali Raza",
            "role": "RevMan User",
            "isEnabled": false,
            "externalUserId": ""
        }
    ],
    "currentPage": 1,
    "pageSize": 10,
    "totalPages": 3,
    "recordCount": 10,
    "totalRecords": 30,
    "messageSummary": {
        "traceId": "0HMSTJNL9GATR:00000002",
        "messages": [
            {
                "title": "Users found",
                "text": "Users found.",
                "code": "7022",
                "messageIndicatorType": "Information",
                "messageDisplayType": "All"
            }
        ],
        "isValid": true
    }
}